^J:\C#\CUESEARCHER_WINFORMS\FORM1.RESX|J:\C#\CUESEARCHER_WINFORMS\PROPERTIES\RESOURCES.RESX
J:\C#\CUESEARCHER_WINFORMS\OBJ\X86\DEBUG\CUESEARCHER_WINFORMS.FORM1.RESOURCES
J:\C#\CUESEARCHER_WINFORMS\OBJ\X86\DEBUG\CUESEARCHER_WINFORMS.PROPERTIES.RESOURCES.RESOURCES
